<svg width="10" height="17" viewBox="0 0 10 17" fill="none" xmlns="http://www.w3.org/2000/svg">
<path d="M5.49855 1L1 9.18442L4.23153 9.36999L3.90838 15.977L8.81007 6.97994L5.57854 6.79117L5.49855 1Z" fill="#A989F5" stroke="#A989F5" stroke-linecap="round" stroke-linejoin="round"/>
</svg>
